{
  "main": {
    "id": "0f8d61261477c0b0",
    "type": "split",
    "children": [
      {
        "id": "ad2c31c170b4564f",
        "type": "tabs",
        "children": [
          {
            "id": "1947d4a66a3016d3",
            "type": "leaf",
            "state": {
              "type": "markdown",
              "state": {
                "file": "container/docker/docker.md",
                "mode": "source",
                "source": false
              }
            }
          }
        ]
      }
    ],
    "direction": "vertical"
  },
  "left": {
    "id": "9e1e419b06dd90b6",
    "type": "split",
    "children": [
      {
        "id": "dad5e4b3371aa075",
        "type": "tabs",
        "children": [
          {
            "id": "14cae8f5a0868516",
            "type": "leaf",
            "state": {
              "type": "file-explorer",
              "state": {
                "sortOrder": "alphabetical"
              }
            }
          },
          {
            "id": "13a97c82afd0fb04",
            "type": "leaf",
            "state": {
              "type": "search",
              "state": {
                "query": "",
                "matchingCase": false,
                "explainSearch": false,
                "collapseAll": false,
                "extraContext": false,
                "sortOrder": "alphabetical"
              }
            }
          },
          {
            "id": "04a19ef0a89a861b",
            "type": "leaf",
            "state": {
              "type": "starred",
              "state": {}
            }
          }
        ]
      }
    ],
    "direction": "horizontal",
    "width": 307.5
  },
  "right": {
    "id": "9f5fef7d0b4039f7",
    "type": "split",
    "children": [
      {
        "id": "4e6e360638f4bf80",
        "type": "tabs",
        "children": [
          {
            "id": "97e37e38be3dc372",
            "type": "leaf",
            "state": {
              "type": "backlink",
              "state": {
                "file": "container/docker/docker.md",
                "collapseAll": false,
                "extraContext": false,
                "sortOrder": "alphabetical",
                "showSearch": false,
                "searchQuery": "",
                "backlinkCollapsed": false,
                "unlinkedCollapsed": true
              }
            }
          },
          {
            "id": "88f8b45019ebd5f3",
            "type": "leaf",
            "state": {
              "type": "outgoing-link",
              "state": {
                "file": "container/docker/docker.md",
                "linksCollapsed": false,
                "unlinkedCollapsed": true
              }
            }
          },
          {
            "id": "5d154f5faa36bcf0",
            "type": "leaf",
            "state": {
              "type": "tag",
              "state": {
                "sortOrder": "frequency",
                "useHierarchy": true
              }
            }
          },
          {
            "id": "403b934bc278425d",
            "type": "leaf",
            "state": {
              "type": "outline",
              "state": {
                "file": "container/docker/docker.md"
              }
            }
          }
        ],
        "currentTab": 3
      }
    ],
    "direction": "horizontal",
    "width": 225.5
  },
  "ribbon": {
    "mostRecentAction": ""
  },
  "active": "1947d4a66a3016d3",
  "lastOpenFiles": [
    "kubernetes/Scaling/keda.md",
    "kubernetes/Scaling/Scaling.md",
    "kubernetes/Kubernetes.md",
    "misc/gitops.md",
    "cicd/cd/argocd.md",
    "misc/Misc.md",
    "cicd/cd/Continuous Deployment.md",
    "imgs/imgs-misc/imgs-gitops/gitops-presend.jpg",
    "container/docker/docker.md",
    "misc/http-status-codes.md"
  ]
}